…
## Flight Data
---

flights 데이터는 뉴욕의 비행 출발/도착과 관련된 데이터입니다. <u>이 데이터를 통해서 어떤 비행기가 30분 연착할 지를 예측해보는 과정을 수행해보겠습니다.</u>

먼저 데이터를 살펴봐야겠군요. 앞으로는 두 개의 테이블을 사용할 예정입니다.

``` r
flights
```

    ## # A tibble: 336,776 x 19
    ##     year month   day dep_time sched_dep_time dep_delay arr_time sched_arr_time arr_delay carrier flight tailnum
    ##    <int> <int> <int>    <int>          <int>     <dbl>    <int>          <int>     <dbl> <chr>    <int> <chr>  
    ##  1  2013     1     1      517            515         2      830            819        11 UA        1545 N14228 
    ##  2  2013     1     1      533            529         4      850            830        20 UA        1714 N24211 
    ##  3  2013     1     1      542            540         2      923            850        33 AA        1141 N619AA 
    ##  4  2013     1     1      544            545        -1     1004           1022       -18 B6         725 N804JB 
    ##  5  2013     1     1      554            600        -6      812            837       -25 DL         461 N668DN 
    ##  6  2013     1     1      554            558        -4      740            728        12 UA        1696 N39463 
    ##  7  2013     1     1      555            600        -5      913            854        19 B6         507 N516JB 
    ##  8  2013     1     1      557            600        -3      709            723       -14 EV        5708 N829AS 
    ##  9  2013     1     1      557            600        -3      838            846        -8 B6          79 N593JB 
    ## 10  2013     1     1      558            600        -2      753            745         8 AA         301 N3ALAA 
    ## # ... with 336,766 more rows, and 7 more variables: origin <chr>, dest <chr>, air_time <dbl>, distance <dbl>,
    ## #   hour <dbl>, minute <dbl>, time_hour <dttm>

``` r
weather
```

    ## # A tibble: 26,115 x 15
    ##    origin  year month   day  hour  temp  dewp humid wind_dir wind_speed wind_gust precip pressure visib
    ##    <chr>  <int> <int> <int> <int> <dbl> <dbl> <dbl>    <dbl>      <dbl>     <dbl>  <dbl>    <dbl> <dbl>
    ##  1 EWR     2013     1     1     1  39.0  26.1  59.4      270      10.4         NA      0    1012     10
    ##  2 EWR     2013     1     1     2  39.0  27.0  61.6      250       8.06        NA      0    1012.    10
    ##  3 EWR     2013     1     1     3  39.0  28.0  64.4      240      11.5         NA      0    1012.    10
    ##  4 EWR     2013     1     1     4  39.9  28.0  62.2      250      12.7         NA      0    1012.    10
    ##  5 EWR     2013     1     1     5  39.0  28.0  64.4      260      12.7         NA      0    1012.    10
    ##  6 EWR     2013     1     1     6  37.9  28.0  67.2      240      11.5         NA      0    1012.    10
    ##  7 EWR     2013     1     1     7  39.0  28.0  64.4      240      15.0         NA      0    1012.    10
    ##  8 EWR     2013     1     1     8  39.9  28.0  62.2      250      10.4         NA      0    1012.    10
    ##  9 EWR     2013     1     1     9  39.9  28.0  62.2      260      15.0         NA      0    1013.    10
    ## 10 EWR     2013     1     1    10  41    28.0  59.6      260      13.8         NA      0    1012.    10
    ## # ... with 26,105 more rows, and 1 more variable: time_hour <dttm>
…
<br>

## Feature Engineering
---

**Feature Engineering**은 머신러닝의 중요한 단계입니다. **Feature Engineering**이란 기존 데이터에서 유용한 컬럼을 뽑아내거나, 정제해내서 새로운 컬럼을 만들어 모델링을 향상시키는 활동을 의미합니다. 이 데이터에는 `date` 컬럼이 있습니다. 이는 날짜 데이터이며 `type`역시 날짜로 되어 있습니다.

``` r
flight_data %>% 
  distinct(date) %>% 
  mutate(numeric_date = as.numeric(date))
```

    ## # A tibble: 364 x 2
    ##    date       numeric_date
    ##    <date>            <dbl>
    ##  1 2013-01-01        15706
    ##  2 2013-01-02        15707
    ##  3 2013-01-03        15708
    ##  4 2013-01-04        15709
    ##  5 2013-01-05        15710
    ##  6 2013-01-06        15711
    ##  7 2013-01-07        15712
    ##  8 2013-01-08        15713
    ##  9 2013-01-09        15714
    ## 10 2013-01-10        15715
    ## # ... with 354 more rows
…
이제 최종 `Reicpe`와 **Model**은 `flights_fit`라는 객체 안에 있습니다. 이 객체에서 **모델** 또는 `Recipe`만 따로 뽑아내고 싶을 수 있습니다. 이 때 사용 하는 함수를 아래에 소개합니다.
- `pull_workflow_fit()` : 모델만 추출 
- `pull_workflow_prepped_recipe()` : `Recipe` 추출

``` r
flights_fit %>% 
  pull_workflow_fit() %>% 
  tidy()
```

    ## # A tibble: 158 x 5
    ##    term                         estimate std.error statistic  p.value
    ##    <chr>                           <dbl>     <dbl>     <dbl>    <dbl>
    ##  1 (Intercept)                   4.09    2.72           1.50 1.33e- 1
    ##  2 dep_time                     -0.00166 0.0000141   -118.   0.      
    ##  3 air_time                     -0.0436  0.000563     -77.6  0.      
    ##  4 distance                      0.00674 0.00150        4.50 6.83e- 6
    ##  5 date_USChristmasDay           1.08    0.171          6.29 3.27e-10
    ##  6 date_USColumbusDay            0.605   0.165          3.67 2.46e- 4
    ##  7 date_USCPulaskisBirthday      0.750   0.130          5.77 8.02e- 9
    ##  8 date_USDecorationMemorialDay  0.300   0.114          2.65 8.17e- 3
    ##  9 date_USElectionDay            0.581   0.166          3.50 4.57e- 4
    ## 10 date_USGoodFriday             1.21    0.159          7.60 2.92e-14
    ## # ... with 148 more rows
…
1.  모델을 만들었습니다.(`lr_mod`)
2.  전처리도 수행했습니다.(`flights_rec`)
3.  모델과 전처리를 묶어서 프로세스를 만들었습니다.(`flights_wflow`)
4.  Traing_Data를 통해 Workflow를 훈련시켰습니다. (`fit()`)

이제는 우리가 `predict()`에 지금까지 만든 프로세스를 사용할 때가
되었습니다.

``` r
predict(flights_fit, test_data)
```

    ## # A tibble: 81,454 x 1
    ##    .pred_class
    ##    <fct>      
    ##  1 on_time    
    ##  2 on_time    
    ##  3 on_time    
    ##  4 on_time    
    ##  5 on_time    
    ##  6 on_time    
    ##  7 on_time    
    ##  8 on_time    
    ##  9 on_time    
    ## 10 on_time    
    ## # ... with 81,444 more rows

-   **outcome variable**이 Factor이므로 `predict()`의 결과도 **late**, **on time** 두 개의 값을 가진 Factor 변수를 출력합니다.
-   만약 왜 **late**, **on time**이 나왔는지 확률값을 알고 싶다고 한다면, `type = "prob"`을 통해 구현할 수 있습니다.

``` r
flights_pred <- 
  predict(flights_fit, test_data, type = 'prob') %>% 
  bind_cols(test_data %>% select(arr_delay, time_hour, flight))
flights_pred
```

    ## # A tibble: 81,454 x 5
    ##    .pred_late .pred_on_time arr_delay time_hour           flight
    ##         <dbl>         <dbl> <fct>     <dttm>               <int>
    ##  1    0.0590          0.941 on_time   2013-01-01 05:00:00   1714
    ##  2    0.00866         0.991 on_time   2013-01-01 05:00:00    725
    ##  3    0.0498          0.950 on_time   2013-01-01 06:00:00    301
    ##  4    0.0277          0.972 on_time   2013-01-01 06:00:00    194
    ##  5    0.0423          0.958 on_time   2013-01-01 06:00:00   1124
    ##  6    0.0961          0.904 late      2013-01-01 06:00:00   3768
    ##  7    0.0126          0.987 on_time   2013-01-01 06:00:00    709
    ##  8    0.0285          0.971 on_time   2013-01-01 06:00:00    575
    ##  9    0.0741          0.926 on_time   2013-01-01 06:00:00     27
    ## 10    0.0240          0.976 on_time   2013-01-01 06:00:00   4646
    ## # ... with 81,444 more rows
…
