…
    ## # A tibble: 1 x 3
    ##    mtry min_n .config              
    ##   <int> <int> <chr>                
    ## 1     4     5 Preprocessor1_Model22

í•„ìš”í•œ ë°ì´í„°ë¡œ ROC Curveë¥¼ ì‚¬ìš©í•˜ê¸° ìœ„í•´ `collect_prediction()`ì„ ìˆ˜í–‰í•˜ê² ìŠµë‹ˆë‹¤. ì´ í•¨ìˆ˜ëŠ” `control_grid(save_pred =TRUE)`ì¼ ë•Œë§Œ ì‚¬ìš© ê°€ëŠ¥í•©ë‹ˆë‹¤.

``` r
rf_res %>% 
  collect_predictions()
```

    ## # A tibble: 187,475 x 8
    ##    id         .pred_children .pred_none  .row  mtry min_n children .config              
    ##    <chr>               <dbl>      <dbl> <int> <int> <int> <fct>    <chr>                
    ##  1 validation       0             1         1     9    14 none     Preprocessor1_Model01
    ##  2 validation       0             1        16     9    14 none     Preprocessor1_Model01
    ##  3 validation       0.000450      1.00     21     9    14 none     Preprocessor1_Model01
    ##  4 validation       0             1        31     9    14 none     Preprocessor1_Model01
    ##  5 validation       0.00675       0.993    33     9    14 none     Preprocessor1_Model01
    ##  6 validation       0.0535        0.947    45     9    14 none     Preprocessor1_Model01
    ##  7 validation       0.0273        0.973    46     9    14 none     Preprocessor1_Model01
    ##  8 validation       0.0393        0.961    53     9    14 none     Preprocessor1_Model01
    ##  9 validation       0.0816        0.918    58     9    14 none     Preprocessor1_Model01
    ## 10 validation       0.00278       0.997    60     9    14 none     Preprocessor1_Model01
    ## # ... with 187,465 more rows
…
