…
# Helper packages
library(modeldata)   # data Import
library(vip)         # Variance Importance 측정
library(tidyverse)
```

#### Data Load

``` r
data(cells, package = "modeldata")
cells
```

    ## # A tibble: 2,019 x 58
    ##    case  class angle_ch_1 area_ch_1 avg_inten_ch_1 avg_inten_ch_2 avg_inten_ch_3
    ##    <fct> <fct>      <dbl>     <int>          <dbl>          <dbl>          <dbl>
    ##  1 Test  PS        143.         185           15.7           4.95           9.55
    ##  2 Train PS        134.         819           31.9         207.            69.9 
    ##  3 Train WS        107.         431           28.0         116.            63.9 
    ##  4 Train PS         69.2        298           19.5         102.            28.2 
    ##  5 Test  PS          2.89       285           24.3         112.            20.5 
    ##  6 Test  WS         40.7        172          326.          654.           129.  
    ##  7 Test  WS        174.         177          260.          596.           124.  
    ##  8 Test  PS        180.         251           18.3           5.73          17.2 
    ##  9 Test  WS         18.9        495           16.1          89.5           13.7 
    ## 10 Test  WS        153.         384           17.7          89.9           20.4 
    ## # ... with 2,009 more rows, and 51 more variables: avg_inten_ch_4 <dbl>,
    ## #   convex_hull_area_ratio_ch_1 <dbl>, convex_hull_perim_ratio_ch_1 <dbl>,
    ## #   diff_inten_density_ch_1 <dbl>, diff_inten_density_ch_3 <dbl>,
    ## #   diff_inten_density_ch_4 <dbl>, entropy_inten_ch_1 <dbl>, entropy_inten_ch_3 <dbl>,
    ## #   entropy_inten_ch_4 <dbl>, eq_circ_diam_ch_1 <dbl>, eq_ellipse_lwr_ch_1 <dbl>,
    ## #   eq_ellipse_oblate_vol_ch_1 <dbl>, eq_ellipse_prolate_vol_ch_1 <dbl>,
    ## #   eq_sphere_area_ch_1 <dbl>, eq_sphere_vol_ch_1 <dbl>, fiber_align_2_ch_3 <dbl>,
    ## #   fiber_align_2_ch_4 <dbl>, fiber_length_ch_1 <dbl>, fiber_width_ch_1 <dbl>,
    ## #   inten_cooc_asm_ch_3 <dbl>, inten_cooc_asm_ch_4 <dbl>,
…
앞서 설명했듯, Dataset으로 어떤 값이 hyperparameter로 사용되어야하는지 알 수는 없습니다. 단, resample을 통해 어떤 모델이 더 나은 결과가 나오는지를 판단할 수는 있습니다.

``` r
tree_grid <- grid_regular(cost_complexity(),
                          tree_depth(),
                          levels = 5)

tree_grid
```

    ## # A tibble: 25 x 2
    ##    cost_complexity tree_depth
    ##              <dbl>      <int>
    ##  1    0.0000000001          1
    ##  2    0.0000000178          1
    ##  3    0.00000316            1
    ##  4    0.000562              1
    ##  5    0.1                   1
    ##  6    0.0000000001          4
    ##  7    0.0000000178          4
    ##  8    0.00000316            4
    ##  9    0.000562              4
    ## 10    0.1                   4
    ## # ... with 15 more rows
…
-   `tune_grid`는 시간이 오래 걸립니다.. :)
-   튜닝이 완료되면 `collect_metrics`를 통해 깔끔하게 결과를 볼 수 있습니다.

``` r
tree_res %>% 
  collect_metrics()
```

    ## # A tibble: 50 x 8
    ##    cost_complexity tree_depth .metric  .estimator  mean     n std_err .config            
    ##              <dbl>      <int> <chr>    <chr>      <dbl> <int>   <dbl> <chr>              
    ##  1    0.0000000001          1 accuracy binary     0.754    10  0.0161 Preprocessor1_Mode~
    ##  2    0.0000000001          1 roc_auc  binary     0.741    10  0.0129 Preprocessor1_Mode~
    ##  3    0.0000000178          1 accuracy binary     0.754    10  0.0161 Preprocessor1_Mode~
    ##  4    0.0000000178          1 roc_auc  binary     0.741    10  0.0129 Preprocessor1_Mode~
    ##  5    0.00000316            1 accuracy binary     0.754    10  0.0161 Preprocessor1_Mode~
    ##  6    0.00000316            1 roc_auc  binary     0.741    10  0.0129 Preprocessor1_Mode~
    ##  7    0.000562              1 accuracy binary     0.754    10  0.0161 Preprocessor1_Mode~
    ##  8    0.000562              1 roc_auc  binary     0.741    10  0.0129 Preprocessor1_Mode~
    ##  9    0.1                   1 accuracy binary     0.754    10  0.0161 Preprocessor1_Mode~
    ## 10    0.1                   1 roc_auc  binary     0.741    10  0.0129 Preprocessor1_Mode~
    ## # ... with 40 more rows
…
