…
## Cell Image Data
---

`Cell Image Data`는 `modeldata` 패키지의 데이터로 세포의 분류를 예측하기 위해 만들어진 모델입니다. 
- [Cell Image Data 설명](https://www.tidymodels.org/start/resampling/#data)
- Cell Image가 선명할수록 생물학자들이 분석에 사용하기 용이합니다. 하지만 일부 Cell Data들의 Image가 선명하지 않거나, 서로 뭉쳐있어서 명확하게 세포의 이미지를 분별하기 어려울 때가 있습니다. 
- 이렇게 선명하게 모양이 잘 나온 데이터를 `class` 컬럼에서 **WS(Well-Segmented)**, 선명하지 않고 불명확하게 나온 세포 데이터를 **PS(Poorly-Segmented로 분류합니다.)** 
- 우리가 데이터를 통해 분류할 수 있다면, 큰 DataSet일수록 생물학자들이 효율적으로 활용할 수 있을 겁니다.

``` r 
data(cells, package = 'modeldata')
cells

## # A tibble: 2,019 x 58
##    case  class angle_ch_1 area_ch_1 avg_inten_ch_1 avg_inten_ch_2 avg_inten_ch_3
##    <fct> <fct>      <dbl>     <int>          <dbl>          <dbl>          <dbl>
##  1 Test  PS        143.         185           15.7           4.95           9.55
##  2 Train PS        134.         819           31.9         207.            69.9 
##  3 Train WS        107.         431           28.0         116.            63.9 
##  4 Train PS         69.2        298           19.5         102.            28.2 
##  5 Test  PS          2.89       285           24.3         112.            20.5 
##  6 Test  WS         40.7        172          326.          654.           129.  
##  7 Test  WS        174.         177          260.          596.           124.  
##  8 Test  PS        180.         251           18.3           5.73          17.2 
##  9 Test  WS         18.9        495           16.1          89.5           13.7 
## 10 Test  WS        153.         384           17.7          89.9           20.4 
## # ... with 2,009 more rows, and 51 more variables: avg_inten_ch_4 <dbl>,
## #   convex_hull_area_ratio_ch_1 <dbl>, convex_hull_perim_ratio_ch_1 <dbl>,
## #   diff_inten_density_ch_1 <dbl>, diff_inten_density_ch_3 <dbl>,
## #   diff_inten_density_ch_4 <dbl>, entropy_inten_ch_1 <dbl>,
## #   entropy_inten_ch_3 <dbl>, entropy_inten_ch_4 <dbl>,
## #   eq_circ_diam_ch_1 <dbl>, eq_ellipse_lwr_ch_1 <dbl>,
## #   eq_ellipse_oblate_vol_ch_1 <dbl>, eq_ellipse_prolate_vol_ch_1 <dbl>,
## #   eq_sphere_area_ch_1 <dbl>, eq_sphere_vol_ch_1 <dbl>,
## #   fiber_align_2_ch_3 <dbl>, fiber_align_2_ch_4 <dbl>,
…
``` r
cells %>% 
  count(class) %>% 
  mutate(prop = n/sum(n))

## # A tibble: 2 x 3
##   class     n  prop
## * <fct> <int> <dbl>
## 1 PS     1300 0.644
## 2 WS      719 0.356

cells

## # A tibble: 2,019 x 58
##    case  class angle_ch_1 area_ch_1 avg_inten_ch_1 avg_inten_ch_2 avg_inten_ch_3
##    <fct> <fct>      <dbl>     <int>          <dbl>          <dbl>          <dbl>
##  1 Test  PS        143.         185           15.7           4.95           9.55
##  2 Train PS        134.         819           31.9         207.            69.9 
##  3 Train WS        107.         431           28.0         116.            63.9 
##  4 Train PS         69.2        298           19.5         102.            28.2 
##  5 Test  PS          2.89       285           24.3         112.            20.5 
##  6 Test  WS         40.7        172          326.          654.           129.  
##  7 Test  WS        174.         177          260.          596.           124.  
##  8 Test  PS        180.         251           18.3           5.73          17.2 
##  9 Test  WS         18.9        495           16.1          89.5           13.7 
## 10 Test  WS        153.         384           17.7          89.9           20.4 
## # ... with 2,009 more rows, and 51 more variables: avg_inten_ch_4 <dbl>,
## #   convex_hull_area_ratio_ch_1 <dbl>, convex_hull_perim_ratio_ch_1 <dbl>,
## #   diff_inten_density_ch_1 <dbl>, diff_inten_density_ch_3 <dbl>,
## #   diff_inten_density_ch_4 <dbl>, entropy_inten_ch_1 <dbl>,
## #   entropy_inten_ch_3 <dbl>, entropy_inten_ch_4 <dbl>,
## #   eq_circ_diam_ch_1 <dbl>, eq_ellipse_lwr_ch_1 <dbl>,
## #   eq_ellipse_oblate_vol_ch_1 <dbl>, eq_ellipse_prolate_vol_ch_1 <dbl>,
## #   eq_sphere_area_ch_1 <dbl>, eq_sphere_vol_ch_1 <dbl>,
## #   fiber_align_2_ch_3 <dbl>, fiber_align_2_ch_4 <dbl>,
…
모델을 측정하는 두 가지 기준을 소개합니다.
1. [ROC Curve](https://m.blog.naver.com/PostView.nhn?blogId=sw4r&logNo=221015817276&proxyReferer=https:%2F%2Fwww.google.com%2F)
2. Accuracy

`yardstick`이라는 패키지는 이 두 가지를 모두 계산해줍니다.
```r
rf_testing_pred <- 
  predict(rf_fit, cell_test) %>% 
  bind_cols(predict(rf_fit, cell_test, type = 'prob')) %>% 
  bind_cols(cell_test %>% select(class))
rf_testing_pred

## # A tibble: 504 x 4
##    .pred_class .pred_PS .pred_WS class
##    <fct>          <dbl>    <dbl> <fct>
##  1 WS            0.131    0.869  WS   
##  2 PS            1        0      PS   
##  3 WS            0.392    0.608  WS   
##  4 WS            0.444    0.556  PS   
##  5 PS            0.774    0.226  PS   
##  6 WS            0.0387   0.961  WS   
##  7 PS            0.527    0.473  PS   
##  8 PS            0.955    0.0448 PS   
##  9 PS            1        0      PS   
## 10 WS            0.132    0.868  WS   
## # ... with 494 more rows
…
